{
    "web": {
        "issuer": "https://uah.local:8443/auth/realms/UAH",
        "auth_uri": "https://uah.local:8443/auth/realms/UAH/protocol/openid-connect/auth",
        "client_id": "raspberrypi",
        "client_secret": "31e1e909-e37a-48d5-8c76-74d7ca8e3b60",
        "redirect_uris": [
            "http://uah.local:5000/*"
        ],
        "userinfo_uri": "https://uah.local:8443/auth/realms/UAH/protocol/openid-connect/userinfo", 
        "token_uri": "https://uah.local:8443/auth/realms/UAH/protocol/openid-connect/token",
        "token_introspection_uri": "https://uah.local:8443/auth/realms/UAH/protocol/openid-connect/token/introspect"
    }
}